{
  "success": true,
  "message": "Success",
  "data": {
    "page": 1,
    "pageSize": 2,
    "totalCount": 32,
    "totalPages": 16,
    "items": [
      {
        "projectId": 1,
        "projectName": "AISEP Payment Module",
        "shortDescription": "Module thanh toán thông minh cho SMEs",
        "developmentStage": "MVP",
        "problemStatement": "Khó khăn trong thanh toán số cho doanh nghiệp nhỏ",
        "solutionDescription": "Nền tảng thanh toán số tích hợp AI",
        "targetCustomers": "SMEs tại Việt Nam",
        "uniqueValueProposition": "Phí thấp hơn 60% so với thị trường",
        "industry": "Fintech",
        "projectImageUrl": null,
        "startupPotentialScore": 105
      },
      {
        "projectId": 2,
        "projectName": "Smart Farm IoT",
        "shortDescription": "Hệ thống IoT quản lý nông trại thông minh",
        "developmentStage": "Growth",
        "problemStatement": "Nông dân thiếu công cụ quản lý và bán hàng hiệu quả",
        "solutionDescription": "App quản lý nông trại thông minh tích hợp IoT",
        "targetCustomers": "Nông dân và hợp tác xã nông nghiệp",
        "uniqueValueProposition": "Kết nối nông dân trực tiếp với người mua, tăng thu nhập 40%",
        "industry": "Fintech",
        "projectImageUrl": null,
        "startupPotentialScore": null
      }
    ]
  },
  "errors": null,
  "statusCode": 200
}