{
  "success": true,
  "message": "Success",
  "data": {
    "page": 1,
    "pageSize": 2,
    "totalCount": 5,
    "totalPages": 3,
    "items": [
      {
        "id": 1,
        "userId": 6,
        "companyName": "TechStart VN",
        "logoUrl": null,
        "founder": "Nguyen Van A",
        "email": null,
        "phoneNumber": null,
        "countryCity": "Ho Chi Minh City, Vietnam",
        "website": "https://techstart.vn",
        "industry": "Fintech",
        "businessLicenseUrl": null,
        "approvalStatus": "Approved",
        "followerCount": 3,
        "createdAt": "2025-12-09T17:01:11.207805Z",
        "approvedById": null,
        "approvedAt": null,
        "rejectedById": null,
        "rejectedAt": null,
        "rejectionReason": null
      },
      {
        "id": 2,
        "userId": 7,
        "companyName": "GreenFarm Tech",
        "logoUrl": null,
        "founder": "Pham Thi B",
        "email": null,
        "phoneNumber": null,
        "countryCity": "Can Tho, Vietnam",
        "website": "https://greenfarm.tech",
        "industry": "Agritech",
        "businessLicenseUrl": null,
        "approvalStatus": "Approved",
        "followerCount": 2,
        "createdAt": "2026-01-09T17:01:11.207837Z",
        "approvedById": null,
        "approvedAt": null,
        "rejectedById": null,
        "rejectedAt": null,
        "rejectionReason": null
      }
    ]
  },
  "errors": null,
  "statusCode": 200
}